…
### Read in the data

``` r
x <- read_data(form = "sf")
x
```

    ## Simple feature collection with 4666 features and 5 fields
    ## Geometry type: POINT
    ## Dimension:     XY
    ## Bounding box:  xmin: -155.4284 ymin: 10.47494 xmax: -7.863112 ymax: 64.44596
    ## Geodetic CRS:  WGS 84
    ## # A tibble: 4,666 × 6
    ##    date       killed wounded city        state             geometry
    ##  * <date>      <dbl>   <dbl> <chr>       <chr>          <POINT [°]>
    ##  1 2013-01-01      1       3 Hawthorne   CA     (-118.756 36.70146)
    ##  2 2013-01-01      1       4 Lorain      OH    (-82.68814 40.22536)
    ##  3 2013-01-01      0       4 McKeesport  PA    (-77.72788 40.96999)
    ##  4 2013-01-01      2       3 Sacramento  CA     (-118.756 36.70146)
    ##  5 2013-01-05      4       0 Aurora      CO    (-105.6077 38.72518)
    ##  6 2013-01-07      4       0 Tulsa       OK    (-97.26841 34.95508)
    ##  7 2013-01-07      2       2 Greensboro  NC    (-79.03929 35.67296)
    ##  8 2013-01-07      3       1 Dinwiddie   VA    (-78.49277 37.12322)
    ##  9 2013-01-10      3       2 New Orleans LA    (-92.00713 30.87039)
    ## 10 2013-01-19      5       0 Albuquerque NM     (-105.993 34.57082)
    ## # … with 4,656 more rows
…
